Gaussian Processes: Introduction – Turing.jl
…
In this case, the only prior knowledge I have is that the proportion of successful shots ought to decrease monotonically as the distance from the hole increases, which should show up in the data as the blue lines generally go down as we move from left to right on each graph. Unfortunately, there is not a simple way to enforce monotonicity in the samples from a GP, and we can see this in some of the plots above, so we must hope that we have enough data to ensure that this relationship holds approximately under the posterior. In any case, you can judge for yourself whether you think this is the most useful visualisation that we can perform – if you think there is something better to look at, please let us know!

Moving on, we generate samples from the posterior using the default NUTS sampler. We’ll make use of ReverseDiff.jl, as it has better performance than ForwardDiff.jl on this example. See Turing.jl’s docs on Automatic Differentiation for more info.

using Random, ReverseDiff

m_post = m | (y=df.y,)
chn = sample(Xoshiro(123456), m_post, NUTS(; adtype=AutoReverseDiff()), 1_000, progress=false)

┌ Info: Found initial step size
└   ϵ = 0.2

Chains MCMC chain (1000×33×1 Array{Float64, 3}):

Iterations        = 501:1:1500
Number of chains  = 1
Samples per chain = 1000
Wall duration     = 152.62 seconds
Compute duration  = 152.62 seconds
parameters        = v, l, f_latent[1], f_latent[2], f_latent[3], f_latent[4], f_latent[5], f_latent[6], f_latent[7], f_latent[8], f_latent[9], f_latent[10], f_latent[11], f_latent[12], f_latent[13], f_latent[14], f_latent[15], f_latent[16], f_latent[17], f_latent[18], f_latent[19]
internals         = lp, n_steps, is_accept, acceptance_rate, log_density, hamiltonian_energy, hamiltonian_energy_error, max_hamiltonian_energy_error, tree_depth, numerical_error, step_size, nom_step_size

Summary Statistics
    parameters      mean       std      mcse    ess_bulk   ess_tail      rhat  ⋯
        Symbol   Float64   Float64   Float64     Float64    Float64   Float64  ⋯

             v    2.9156    1.3500    0.0471    888.9807   602.1180    0.9998  ⋯
             l    3.6597    0.8239    0.0542    204.5560   181.5073    1.0022  ⋯
   f_latent[1]    2.5427    0.0980    0.0031    976.8509   841.3983    1.0001  ⋯
   f_latent[2]    1.7005    0.0680    0.0020   1159.1773   697.0767    1.0007  ⋯
   f_latent[3]    0.9745    0.0782    0.0033    557.7282   696.2342    1.0014  ⋯
   f_latent[4]    0.4800    0.0756    0.0026    885.5237   663.8774    1.0018  ⋯
   f_latent[5]    0.1925    0.0778    0.0025    987.6531   661.5774    0.9995  ⋯
   f_latent[6]   -0.0136    0.0952    0.0046    432.1599   412.7216    0.9991  ⋯
   f_latent[7]   -0.2455    0.0876    0.0031    761.9793   545.9663    1.0007  ⋯
   f_latent[8]   -0.5048    0.0869    0.0031    775.3969   490.1728    0.9995  ⋯
   f_latent[9]   -0.7219    0.0959    0.0041    552.6868   565.7969    0.9998  ⋯
  f_latent[10]   -0.8629    0.0922    0.0036    649.0443   763.2700    0.9990  ⋯
  f_latent[11]   -0.9491    0.0923    0.0033    771.8466   597.0319    1.0026  ⋯
  f_latent[12]   -1.0394    0.1115    0.0042    694.0441   625.9025    1.0036  ⋯
  f_latent[13]   -1.1896    0.1189    0.0042    819.1409   609.3305    1.0007  ⋯
  f_latent[14]   -1.4028    0.1133    0.0040    815.2130   640.5742    1.0018  ⋯
  f_latent[15]   -1.6049    0.1162    0.0044    707.9191   627.7714    1.0017  ⋯
       ⋮            ⋮         ⋮         ⋮          ⋮          ⋮          ⋮     ⋱
                                                     1 column and 4 rows omitted
…
