Introduction to Gaussian Processes using JuliaGPs and Turing.jl – Turing.jl
…
In this case, the only prior knowledge I have is that the proportion of successful shots ought to decrease monotonically as the distance from the hole increases, which should show up in the data as the blue lines generally going down as we move from left to right on each graph. Unfortunately, there is not a simple way to enforce monotonicity in the samples from a GP, and we can see this in some of the plots above, so we must hope that we have enough data to ensure that this relationship approximately holds under the posterior. In any case, you can judge for yourself whether you think this is the most useful visualisation that we can perform – if you think there is something better to look at, please let us know!

Moving on, we generate samples from the posterior using the default NUTS sampler. We’ll make use of ReverseDiff.jl, as it has better performance than ForwardDiff.jl on this example. See Turing.jl’s docs on Automatic Differentiation for more info.

using Random, ReverseDiff

m_post = m | (y=df.y,)
chn = sample(Xoshiro(123456), m_post, NUTS(;adtype=AutoReverseDiff()), 1_000, progress=false)

┌ Info: Found initial step size
└   ϵ = 0.2

Chains MCMC chain (1000×33×1 Array{Float64, 3}):

Iterations        = 501:1:1500
Number of chains  = 1
Samples per chain = 1000
Wall duration     = 69.25 seconds
Compute duration  = 69.25 seconds
parameters        = v, l, f_latent[1], f_latent[2], f_latent[3], f_latent[4], f_latent[5], f_latent[6], f_latent[7], f_latent[8], f_latent[9], f_latent[10], f_latent[11], f_latent[12], f_latent[13], f_latent[14], f_latent[15], f_latent[16], f_latent[17], f_latent[18], f_latent[19]
internals         = lp, n_steps, is_accept, acceptance_rate, log_density, hamiltonian_energy, hamiltonian_energy_error, max_hamiltonian_energy_error, tree_depth, numerical_error, step_size, nom_step_size

Summary Statistics
    parameters      mean       std      mcse    ess_bulk   ess_tail      rhat  ⋯
        Symbol   Float64   Float64   Float64     Float64    Float64   Float64  ⋯

             v    2.8600    1.3028    0.0417    918.2550   717.5566    1.0001  ⋯
             l    3.5798    0.8554    0.0631    177.0742   219.2957    1.0062  ⋯
   f_latent[1]    2.5512    0.1017    0.0029   1213.8603   401.2582    1.0050  ⋯
   f_latent[2]    1.7058    0.0718    0.0020   1318.8268   732.6694    1.0030  ⋯
   f_latent[3]    0.9728    0.0787    0.0034    553.0865   583.8339    1.0019  ⋯
   f_latent[4]    0.4751    0.0776    0.0032    582.2141   654.6469    1.0009  ⋯
   f_latent[5]    0.1921    0.0745    0.0022   1135.7254   716.0834    1.0005  ⋯
   f_latent[6]   -0.0086    0.0895    0.0044    409.7724   405.8487    0.9992  ⋯
   f_latent[7]   -0.2392    0.0880    0.0033    694.7892   481.4659    0.9991  ⋯
   f_latent[8]   -0.5027    0.0905    0.0033    743.6810   589.3439    0.9990  ⋯
   f_latent[9]   -0.7235    0.0984    0.0042    530.8329   580.1962    1.0004  ⋯
  f_latent[10]   -0.8647    0.0958    0.0035    742.7441   624.4842    1.0043  ⋯
  f_latent[11]   -0.9459    0.0939    0.0028   1092.2843   739.5350    0.9994  ⋯
  f_latent[12]   -1.0314    0.1077    0.0039    761.7264   691.7446    1.0020  ⋯
  f_latent[13]   -1.1816    0.1131    0.0049    528.9246   675.1217    1.0030  ⋯
  f_latent[14]   -1.3997    0.1131    0.0037    954.8557   813.1763    1.0015  ⋯
  f_latent[15]   -1.6072    0.1233    0.0048    698.4308   561.3113    0.9997  ⋯
       ⋮            ⋮         ⋮         ⋮          ⋮          ⋮          ⋮     ⋱
                                                     1 column and 4 rows omitted
…
